<?xml version="1.0" encoding="utf-8"?>
<!-- Generator: Adobe Illustrator 19.0.0, SVG Export Plug-In . SVG Version: 6.00 Build 0)  -->
<svg version="1.1" id="Layer_1" xmlns="http://www.w3.org/2000/svg" xmlns:xlink="http://www.w3.org/1999/xlink" x="0px" y="0px"
	 viewBox="0 0 13 13" style="enable-background:new 0 0 13 13;" xml:space="preserve">
<g id="XMLID_1_">
	<path id="XMLID_18_" d="M7,7c0,2.2,0,4.1,0,6c-0.3,0-0.7,0-1,0c0-1.8,0-3.6,0-6C3.9,7,1.9,7,0,7c0-0.3,0-0.7,0-1c1.8,0,3.6,0,6,0
		c0-2.1,0-4.1,0-6c0.3,0,0.7,0,1,0c0,1.8,0,3.6,0,6c2.1,0,4.1,0,6,0c0,0.3,0,0.7,0,1C11.2,7,9.4,7,7,7"/>
</g>
<g id="XMLID_55_">
</g>
<g id="XMLID_56_">
</g>
<g id="XMLID_57_">
</g>
<g id="XMLID_58_">
</g>
<g id="XMLID_59_">
</g>
<g id="XMLID_60_">
</g>
</svg>
