<?xml version="1.0" encoding="utf-8"?>
<!-- Generator: Adobe Illustrator 19.0.0, SVG Export Plug-In . SVG Version: 6.00 Build 0)  -->
<svg version="1.1" id="Layer_1" xmlns="http://www.w3.org/2000/svg" xmlns:xlink="http://www.w3.org/1999/xlink" x="0px" y="0px"
	 viewBox="0 0 94.5 77" style="enable-background:new 0 0 94.5 77;" xml:space="preserve">
<g id="XMLID_55_">
	<path id="XMLID_78_" d="M31.5,0c0.9,1.8,1.8,3.5,2.9,5.5C20.8,13.3,9.8,22.9,11.5,39.7c6-0.5,11.6-1.8,16.9-1.1
		c7.8,1.1,13.1,7.5,14.1,14.8c1.3,9.5-2.1,17-9.6,21.1c-1.7,0.9-3.6,1.6-5.4,2.4c-3,0-6,0-9,0C8.1,73.9,2.6,66.4,0.9,56.3
		C-1.5,42.3,1,29.3,9.3,17.5C14.8,9.7,22.8,5.1,30.5,0C30.8,0,31.1,0,31.5,0z"/>
	<path id="XMLID_77_" d="M69.5,77c-13.7-6.7-19.6-18.7-17.7-34.7C53.9,24,63.2,10.8,79.2,2.1c1.1-0.6,2.2-1.4,3.3-2.1
		c0.3,0,0.7,0,1,0c0.8,1.8,1.6,3.6,2.4,5.5c-13.3,8-24.6,17.4-22.4,35.8c13.4-6.8,26-2.7,31,10.7c0,3.7,0,7.3,0,11
		c-3,6.8-7.8,11.7-15,14C76.1,77,72.8,77,69.5,77z"/>
</g>
<g id="XMLID_173_">
</g>
<g id="XMLID_174_">
</g>
<g id="XMLID_175_">
</g>
<g id="XMLID_176_">
</g>
<g id="XMLID_177_">
</g>
<g id="XMLID_178_">
</g>
</svg>
